{
  "project_info": {
    "project_number": "440560551158",
    "firebase_url": "https://interlude-music-app.firebaseio.com",
    "project_id": "interlude-music-app",
    "storage_bucket": "interlude-music-app.appspot.com"
  },
  "client": [
    {
      "client_info": {
        "mobilesdk_app_id": "1:440560551158:android:eb75f5b36ab0006011d8d7",
        "android_client_info": {
          "package_name": "org.interludemusic.app"
        }
      },
      "oauth_client": [
        {
          "client_id": "440560551158-3s3gm9tss2visl7jks7fd6soc4dp3i2g.apps.googleusercontent.com",
          "client_type": 3
        }
      ],
      "api_key": [
        {
          "current_key": "AIzaSyAhT3gJCzaBobKskvO_1lhoCgF__Ns9aqc"
        }
      ],
      "services": {
        "appinvite_service": {
          "other_platform_oauth_client": [
            {
              "client_id": "440560551158-3s3gm9tss2visl7jks7fd6soc4dp3i2g.apps.googleusercontent.com",
              "client_type": 3
            }
          ]
        }
      }
    }
  ],
  "configuration_version": "1"
}